/cm/local/apps/slurm/var/spool/job16986726/slurm_script: line 11:  : command not found
2022-01-04 08:24:32,044	INFO services.py:1340 -- View the Ray dashboard at [1m[32mhttp://127.0.0.1:8265[39m[22m
2022-01-04 08:24:34,374	WARNING function_runner.py:562 -- Function checkpointing is disabled. This may result in unexpected behavior when using checkpointing features or certain schedulers. To enable, set the train function arguments to be `func(config, checkpoint_dir=None)`.
2022-01-04 08:24:34,549	WARNING trial_runner.py:277 -- The maximum number of pending trials has been automatically set to the number of available cluster CPUs, which is high (246 CPUs/pending trials). If you're running an experiment with a large number of trials, this could lead to scheduling overhead. In this case, consider setting the `TUNE_MAX_PENDING_TRIALS_PG` environment variable to the desired maximum number of concurrent trials.
2022-01-04 08:28:49,954	WARNING worker.py:1245 -- WARNING: 112 PYTHON worker processes have been started on node: e88789c507bc2a6936d11e177ee91ca1cc016cae9b86856dfa887e81 with address: 172.20.0.12. This could be a result of using a large number of actors, or due to tasks blocked in ray.get() calls (see https://github.com/ray-project/ray/issues/3644 for some discussion of workarounds).
2022-01-04 08:33:35,191	WARNING worker.py:1245 -- WARNING: 140 PYTHON worker processes have been started on node: e88789c507bc2a6936d11e177ee91ca1cc016cae9b86856dfa887e81 with address: 172.20.0.12. This could be a result of using a large number of actors, or due to tasks blocked in ray.get() calls (see https://github.com/ray-project/ray/issues/3644 for some discussion of workarounds).
2022-01-04 08:37:33,982	WARNING worker.py:1245 -- WARNING: 168 PYTHON worker processes have been started on node: e88789c507bc2a6936d11e177ee91ca1cc016cae9b86856dfa887e81 with address: 172.20.0.12. This could be a result of using a large number of actors, or due to tasks blocked in ray.get() calls (see https://github.com/ray-project/ray/issues/3644 for some discussion of workarounds).
2022-01-04 08:38:49,361	WARNING worker.py:1245 -- WARNING: 196 PYTHON worker processes have been started on node: e88789c507bc2a6936d11e177ee91ca1cc016cae9b86856dfa887e81 with address: 172.20.0.12. This could be a result of using a large number of actors, or due to tasks blocked in ray.get() calls (see https://github.com/ray-project/ray/issues/3644 for some discussion of workarounds).
2022-01-04 08:41:27,528	WARNING ray_trial_executor.py:771 -- Over the last 60 seconds, the Tune event loop has been backlogged processing new results. Consider increasing your period of result reporting to improve performance.
2022-01-04 08:41:36,939	ERROR gcs_utils.py:137 -- Failed to send request to gcs, reconnecting. Error <_InactiveRpcError of RPC that terminated with:
	status = StatusCode.UNAVAILABLE
	details = "Socket closed"
	debug_error_string = "{"created":"@1641314496.938890845","description":"Error received from peer ipv4:172.20.0.12:33807","file":"src/core/lib/surface/call.cc","file_line":1074,"grpc_message":"Socket closed","grpc_status":14}"
>
2022-01-04 08:41:37,004	ERROR worker.py:1247 -- listen_error_messages_raylet: Connection closed by server.
2022-01-04 08:41:37,010	ERROR worker.py:478 -- print_logs: Connection closed by server.
2022-01-04 08:41:37,010	ERROR import_thread.py:89 -- ImportThread: Connection closed by server.
/cm/local/apps/slurm/var/spool/job16986726/slurm_script: line 12: 21358 Killed                  python3 tuneMCContinuous.py
slurmstepd: error: Detected 8 oom-kill event(s) in step 16986726.batch cgroup. Some of your processes may have been killed by the cgroup out-of-memory handler.
