Training:  <class 'TileFAAlgorithms.GreedyGQ'>
Training:  <class 'TileFAAlgorithms.GDQ'>
Training:  <class 'TileFAAlgorithms.GDQ'>
Training:  <class 'TileFAAlgorithms.RandomAgent'>
Training:  <class 'TileFAAlgorithms.QAgent'>
Finished.
