{'agents path': '/storage/users/MTrappett/RL/ddq/Unfinished/Cartpole/Results/Results_Apr_01_2022_11_32_10/Agents/',
 'alpha': 0.1,
 'beta': 0.001,
 'env': 'CartPole-v1',
 'episodes': 1000,
 'epsilon': 0.1,
 'gamma': 0.99,
 'kappa': 4,
 'lambda': 0,
 'numTiles': 10,
 'repeats': 50,
 'results path': '/storage/users/MTrappett/RL/ddq/Unfinished/Cartpole/Results/Results_Apr_01_2022_11_32_10/Graphs/',
 'tileVecSize': 1000000}
